<?xml version="1.0" encoding="iso-8859-1"?>
<!-- Generator: Adobe Illustrator 19.0.0, SVG Export Plug-In . SVG Version: 6.00 Build 0)  -->
<svg version="1.1" id="Layer_1" xmlns="http://www.w3.org/2000/svg" xmlns:xlink="http://www.w3.org/1999/xlink" x="0px" y="0px"
	 viewBox="0 0 512 512" style="enable-background:new 0 0 512 512;" xml:space="preserve">
<g>
	<g>
		<path d="M449.362,43.574H8.171c-2.167,0-4.245,0.861-5.777,2.393c-2.393,2.393-2.393,3.952-2.393,9.753L0,405.787
			c0,4.512,3.658,8.17,8.17,8.17h256.007c4.512,0,8.17-3.658,8.17-8.17s-3.658-8.17-8.17-8.17H28.433L192,240.108l31.099,29.947
			c1.582,1.524,3.624,2.286,5.667,2.286c2.043,0,4.085-0.761,5.667-2.286l31.099-29.947l20.735,19.966
			c1.585,1.526,3.626,2.285,5.666,2.285c2.143,0,4.283-0.838,5.886-2.503c3.13-3.25,3.033-8.422-0.218-11.552l-20.29-19.539
			L441.191,70.955v149.648c0,4.512,3.658,8.17,8.17,8.17s8.17-3.658,8.17-8.17V51.745C457.532,47.233,453.874,43.574,449.362,43.574
			z M16.34,386.577c0-61.669,0-253.993,0.001-315.622l163.88,157.81L16.34,386.577z M228.766,252.828L28.433,59.915h400.665
			L228.766,252.828z"/>
	</g>
</g>
<g>
	<g>
		<path d="M394.894,234.213c-64.573,0-117.106,52.533-117.106,117.106s52.533,117.106,117.106,117.106S512,415.892,512,351.319
			S459.467,234.213,394.894,234.213z M386.723,451.753c-13.653-1.1-26.546-4.935-38.13-10.954l0.002-58.433h38.128V451.753z
			 M354.312,366.025l18.155-32.681h44.853l18.156,32.681H354.312z M381.545,317.004l13.349-24.028l13.349,24.028H381.545z
			 M403.064,451.752v-69.386h38.128l0.001,58.433C429.608,446.817,416.717,450.652,403.064,451.752z M457.533,430.191l-0.001-55.995
			c0-1.389-0.354-2.754-1.028-3.967L429.321,321.3c-0.009-0.016-0.017-0.032-0.026-0.048l-27.259-49.067
			c-1.441-2.594-4.176-4.203-7.142-4.203s-5.701,1.609-7.142,4.203l-27.259,49.067c-0.009,0.016-0.017,0.032-0.026,0.048
			l-27.183,48.929c-0.674,1.214-1.028,2.579-1.028,3.967l-0.002,55.994c-23.215-18.476-38.125-46.963-38.125-78.871
			c0-55.563,45.203-100.766,100.766-100.766c55.563,0,100.766,45.203,100.766,100.766
			C495.66,383.228,480.748,411.714,457.533,430.191z"/>
	</g>
</g>
<g>
</g>
<g>
</g>
<g>
</g>
<g>
</g>
<g>
</g>
<g>
</g>
<g>
</g>
<g>
</g>
<g>
</g>
<g>
</g>
<g>
</g>
<g>
</g>
<g>
</g>
<g>
</g>
<g>
</g>
</svg>
